location_id,postal_code,stations_number
0,77229,6
1,77980,10
2,76723,6
3,77623,6
4,76602,11
5,77205,5
6,75559,5
7,77972,4
8,77826,10
9,77194,5
10,75598,11
11,77412,5
12,76518,9
13,77102,5
14,77151,8
15,76884,10
16,76233,5
17,77527,5
18,76042,10
19,75276,5
